# MTL-File belongs to model: Phantom3.obj
# Don't change this file name - original file name: Phantom3.mtl
# MTL-File and OBJ-Model shall be in the same directory

# 2 Colors

newmtl Color0
Kd 0.627451 0.627451 0.627451

newmtl Color1
Kd 0.964706 0.964706 0.952941

