Engine\Binaries\Win64\CrashReportClient.exe	2017-03-30T05:41:18.789Z
CrazyDrones\Binaries\Win64\CrazyDrones.exe	2017-06-11T22:37:02.597Z
CrazyDrones.exe	2017-06-28T18:29:59.773Z
Engine\Extras\Redist\en-us\UE4PrereqSetup_x64.exe	2017-03-08T07:40:17.750Z
Engine\Binaries\ThirdParty\PhysX\Win64\VS2015\PxFoundationPROFILE_x64.dll	2017-03-30T05:39:42.572Z
Engine\Binaries\ThirdParty\PhysX\Win64\VS2015\PxPvdSDKPROFILE_x64.dll	2017-03-30T05:39:42.599Z
Engine\Binaries\ThirdParty\PhysX\Win64\VS2015\PhysX3PROFILE_x64.dll	2017-03-30T05:39:42.546Z
Engine\Binaries\ThirdParty\PhysX\Win64\VS2015\PhysX3CookingPROFILE_x64.dll	2017-03-30T05:39:42.526Z
Engine\Binaries\ThirdParty\PhysX\Win64\VS2015\PhysX3CommonPROFILE_x64.dll	2017-03-30T05:39:42.497Z
Engine\Binaries\ThirdParty\PhysX\Win64\VS2015\APEX_ClothingPROFILE_x64.dll	2017-03-30T05:39:42.320Z
Engine\Binaries\ThirdParty\PhysX\Win64\VS2015\APEX_DestructiblePROFILE_x64.dll	2017-03-30T05:39:42.361Z
Engine\Binaries\ThirdParty\PhysX\Win64\VS2015\APEX_LegacyPROFILE_x64.dll	2017-03-30T05:39:42.405Z
Engine\Binaries\ThirdParty\PhysX\Win64\VS2015\ApexFrameworkPROFILE_x64.dll	2017-03-30T05:39:42.440Z
Engine\Binaries\ThirdParty\Ogg\Win64\VS2015\libogg_64.dll	2017-03-08T07:03:42.582Z
Engine\Binaries\ThirdParty\Vorbis\Win64\VS2015\libvorbis_64.dll	2017-03-08T07:04:41.714Z
Engine\Binaries\ThirdParty\Vorbis\Win64\VS2015\libvorbisfile_64.dll	2017-03-08T07:04:41.725Z
Engine\Binaries\ThirdParty\Steamworks\Steamv132\Win64\steam_api64.dll	2017-03-08T07:04:31.108Z
Engine\Config\controller.vdf	2017-03-08T07:16:49.353Z
Engine\Binaries\ThirdParty\Oculus\OculusMobile\SDK_1_0_3\Win64\VrApiShim.dll	2017-03-30T05:39:41.964Z
Engine\Binaries\ThirdParty\OpenVR\OpenVRv1_0_2\Win64\openvr_api.dll	2017-03-08T07:03:51.089Z
Engine\Build\Build.version	2017-03-30T05:45:41.901Z
Engine\Content\Slate\Checkerboard.png	2017-03-08T07:18:27.758Z
Engine\Content\Slate\Common\BoxShadow.png	2017-03-08T07:18:27.761Z
Engine\Content\Slate\Common\Button.png	2017-03-08T07:18:27.763Z
Engine\Content\Slate\Common\Button_Disabled.png	2017-03-08T07:18:27.766Z
Engine\Content\Slate\Common\Button_Hovered.png	2017-03-08T07:18:27.768Z
Engine\Content\Slate\Common\Button_Pressed.png	2017-03-08T07:18:27.770Z
Engine\Content\Slate\Common\Check.png	2017-03-08T07:18:27.773Z
Engine\Content\Slate\Common\CheckBox.png	2017-03-08T07:18:27.775Z
Engine\Content\Slate\Common\CheckBox_Checked.png	2017-03-08T07:18:27.777Z
Engine\Content\Slate\Common\CheckBox_Checked_Hovered.png	2017-03-08T07:18:27.780Z
Engine\Content\Slate\Common\CheckBox_Hovered.png	2017-03-08T07:18:27.783Z
Engine\Content\Slate\Common\CheckBox_Undetermined.png	2017-03-08T07:18:27.785Z
Engine\Content\Slate\Common\CheckBox_Undetermined_Hovered.png	2017-03-08T07:18:27.786Z
Engine\Content\Slate\Common\Checker.png	2017-03-08T07:18:27.789Z
Engine\Content\Slate\Common\Circle.png	2017-03-08T07:18:27.791Z
Engine\Content\Slate\Common\ColorGradingWheel.png	2017-03-08T07:18:27.793Z
Engine\Content\Slate\Common\ColorPicker_Mode_16x.png	2017-03-08T07:18:27.796Z
Engine\Content\Slate\Common\ColorPicker_Separator.png	2017-03-08T07:18:27.799Z
Engine\Content\Slate\Common\ColorPicker_SliderHandle.png	2017-03-08T07:18:27.801Z
Engine\Content\Slate\Common\ColorSpectrum.png	2017-03-08T07:18:27.804Z
Engine\Content\Slate\Common\ColorWheel.png	2017-03-08T07:18:27.807Z
Engine\Content\Slate\Common\ColumnHeader.png	2017-03-08T07:18:27.810Z
Engine\Content\Slate\Common\ColumnHeaderMenuButton_Hovered.png	2017-03-08T07:18:27.817Z
Engine\Content\Slate\Common\ColumnHeaderMenuButton_Normal.png	2017-03-08T07:18:27.820Z
Engine\Content\Slate\Common\ColumnHeader_Arrow.png	2017-03-08T07:18:27.813Z
Engine\Content\Slate\Common\ColumnHeader_Hovered.png	2017-03-08T07:18:27.815Z
Engine\Content\Slate\Common\ComboArrow.png	2017-03-08T07:18:27.822Z
Engine\Content\Slate\Common\CursorPing.png	2017-03-08T07:18:27.825Z
Engine\Content\Slate\Common\DebugBorder.PNG	2017-03-08T07:18:27.827Z
Engine\Content\Slate\Common\Delimiter.png	2017-03-08T07:18:27.830Z
Engine\Content\Slate\Common\DownArrow.png	2017-03-08T07:18:27.833Z
Engine\Content\Slate\Common\DropZoneIndicator_Above.png	2017-03-08T07:18:27.835Z
Engine\Content\Slate\Common\DropZoneIndicator_Below.png	2017-03-08T07:18:27.837Z
Engine\Content\Slate\Common\DropZoneIndicator_Onto.png	2017-03-08T07:18:27.840Z
Engine\Content\Slate\Common\EditableTextSelectionBackground.png	2017-03-08T07:18:27.842Z
Engine\Content\Slate\Common\EventMessage_Default.png	2017-03-08T07:18:27.843Z
Engine\Content\Slate\Common\ExpansionButton_CloseOverlay.png	2017-03-08T07:18:27.845Z
Engine\Content\Slate\Common\GroupBorder.png	2017-03-08T07:18:27.848Z
Engine\Content\Slate\Common\HeaderSplitterGrip.PNG	2017-03-08T07:18:27.851Z
Engine\Content\Slate\Common\LastColumnHeader_Hovered.png	2017-03-08T07:18:27.852Z
Engine\Content\Slate\Common\NoiseBackground.png	2017-03-08T07:18:27.855Z
Engine\Content\Slate\Common\ProgressBar_Background.png	2017-03-08T07:18:27.857Z
Engine\Content\Slate\Common\ProgressBar_Fill.png	2017-03-08T07:18:27.859Z
Engine\Content\Slate\Common\ProgressBar_Marquee.PNG	2017-03-08T07:18:27.862Z
Engine\Content\Slate\Common\RadioButton_SelectedBack_16x.png	2017-03-08T07:18:27.868Z
Engine\Content\Slate\Common\RadioButton_Selected_16x.png	2017-03-08T07:18:27.866Z
Engine\Content\Slate\Common\RadioButton_Unselected_16x.png	2017-03-08T07:18:27.870Z
Engine\Content\Slate\Common\RoundedSelection_16x.PNG	2017-03-08T07:18:27.873Z
Engine\Content\Slate\Common\Scrollbar_Background_Horizontal.png	2017-03-08T07:18:27.875Z
Engine\Content\Slate\Common\Scrollbar_Background_Vertical.png	2017-03-08T07:18:27.876Z
Engine\Content\Slate\Common\Scrollbar_Thumb.png	2017-03-08T07:18:27.879Z
Engine\Content\Slate\Common\ScrollBorderShadowBottom.png	2017-03-08T07:18:27.882Z
Engine\Content\Slate\Common\ScrollBorderShadowTop.png	2017-03-08T07:18:27.884Z
Engine\Content\Slate\Common\ScrollBoxShadowBottom.png	2017-03-08T07:18:27.886Z
Engine\Content\Slate\Common\ScrollBoxShadowLeft.png	2017-03-08T07:18:27.888Z
Engine\Content\Slate\Common\ScrollBoxShadowRight.png	2017-03-08T07:18:27.890Z
Engine\Content\Slate\Common\ScrollBoxShadowTop.png	2017-03-08T07:18:27.892Z
Engine\Content\Slate\Common\SearchGlass.PNG	2017-03-08T07:18:27.896Z
Engine\Content\Slate\Common\Selection.png	2017-03-08T07:18:27.899Z
Engine\Content\Slate\Common\Selector.png	2017-03-08T07:18:27.901Z
Engine\Content\Slate\Common\Separator.png	2017-03-08T07:18:27.903Z
Engine\Content\Slate\Common\SmallCheck.png	2017-03-08T07:18:27.905Z
Engine\Content\Slate\Common\SmallCheckBox.png	2017-03-08T07:18:27.908Z
Engine\Content\Slate\Common\SmallCheckBox_Checked.png	2017-03-08T07:18:27.910Z
Engine\Content\Slate\Common\SmallCheckBox_Checked_Hovered.png	2017-03-08T07:18:27.912Z
Engine\Content\Slate\Common\SmallCheckBox_Hovered.png	2017-03-08T07:18:27.916Z
Engine\Content\Slate\Common\SmallCheckBox_Undetermined.png	2017-03-08T07:18:27.918Z
Engine\Content\Slate\Common\SmallCheckBox_Undetermined_Hovered.png	2017-03-08T07:18:27.920Z
Engine\Content\Slate\Common\SortDownArrow.png	2017-03-08T07:18:27.922Z
Engine\Content\Slate\Common\SortDownArrows.png	2017-03-08T07:18:27.925Z
Engine\Content\Slate\Common\SortUpArrow.png	2017-03-08T07:18:27.927Z
Engine\Content\Slate\Common\SortUpArrows.png	2017-03-08T07:18:27.930Z
Engine\Content\Slate\Common\SpinArrows.png	2017-03-08T07:18:27.932Z
Engine\Content\Slate\Common\Spinbox.PNG	2017-03-08T07:18:27.935Z
Engine\Content\Slate\Common\Spinbox_Fill.png	2017-03-08T07:18:27.937Z
Engine\Content\Slate\Common\Spinbox_Fill_Dark.png	2017-03-08T07:18:27.939Z
Engine\Content\Slate\Common\Spinbox_Fill_Hovered.png	2017-03-08T07:18:27.941Z
Engine\Content\Slate\Common\Spinbox_Fill_Hovered_Dark.png	2017-03-08T07:18:27.943Z
Engine\Content\Slate\Common\Spinbox_Hovered.png	2017-03-08T07:18:27.947Z
Engine\Content\Slate\Common\SplitterHandleHighlight.png	2017-03-08T07:18:27.950Z
Engine\Content\Slate\Common\SubmenuArrow.png	2017-03-08T07:18:27.952Z
Engine\Content\Slate\Common\TableViewHeader.png	2017-03-08T07:18:28.001Z
Engine\Content\Slate\Common\TableViewMajorColumn.png	2017-03-08T07:18:28.003Z
Engine\Content\Slate\Common\TextBlockHighlightShape.png	2017-03-08T07:18:28.006Z
Engine\Content\Slate\Common\TextBlockHighlightShape_Empty.png	2017-03-08T07:18:28.008Z
Engine\Content\Slate\Common\TextBox.png	2017-03-08T07:18:28.015Z
Engine\Content\Slate\Common\TextBoxLabelBorder.PNG	2017-03-08T07:18:28.056Z
Engine\Content\Slate\Common\TextBox_Dark.png	2017-03-08T07:18:28.018Z
Engine\Content\Slate\Common\TextBox_Hovered.png	2017-03-08T07:18:28.019Z
Engine\Content\Slate\Common\TextBox_Hovered_Dark.png	2017-03-08T07:18:28.021Z
Engine\Content\Slate\Common\TextBox_ReadOnly.png	2017-03-08T07:18:28.034Z
Engine\Content\Slate\Common\TextBox_Special.png	2017-03-08T07:18:28.036Z
Engine\Content\Slate\Common\TextBox_Special_Hovered.png	2017-03-08T07:18:28.038Z
Engine\Content\Slate\Common\Throbber_Piece.png	2017-03-08T07:18:28.058Z
Engine\Content\Slate\Common\TreeArrow_Collapsed.png	2017-03-08T07:18:28.060Z
Engine\Content\Slate\Common\TreeArrow_Collapsed_Hovered.png	2017-03-08T07:18:28.084Z
Engine\Content\Slate\Common\TreeArrow_Expanded.png	2017-03-08T07:18:28.086Z
Engine\Content\Slate\Common\TreeArrow_Expanded_Hovered.png	2017-03-08T07:18:28.088Z
Engine\Content\Slate\Common\UpArrow.png	2017-03-08T07:18:28.090Z
Engine\Content\Slate\Common\VolumeControl_High.png	2017-03-08T07:18:28.092Z
Engine\Content\Slate\Common\VolumeControl_Low.png	2017-03-08T07:18:28.094Z
Engine\Content\Slate\Common\VolumeControl_Mid.png	2017-03-08T07:18:28.096Z
Engine\Content\Slate\Common\VolumeControl_Muted.png	2017-03-08T07:18:28.098Z
Engine\Content\Slate\Common\VolumeControl_Off.png	2017-03-08T07:18:28.101Z
Engine\Content\Slate\Common\WhiteGroupBorder.png	2017-03-08T07:18:28.102Z
Engine\Content\Slate\Common\X.PNG	2017-03-08T07:18:28.148Z
Engine\Content\Slate\Common\Window\WindowBackground.png	2017-03-08T07:18:28.104Z
Engine\Content\Slate\Common\Window\WindowBorder.png	2017-03-08T07:18:28.107Z
Engine\Content\Slate\Common\Window\WindowButton_Close_Hovered.png	2017-03-08T07:18:28.110Z
Engine\Content\Slate\Common\Window\WindowButton_Close_Normal.png	2017-03-08T07:18:28.111Z
Engine\Content\Slate\Common\Window\WindowButton_Close_Pressed.png	2017-03-08T07:18:28.114Z
Engine\Content\Slate\Common\Window\WindowButton_Maximize_Disabled.png	2017-03-08T07:18:28.116Z
Engine\Content\Slate\Common\Window\WindowButton_Maximize_Hovered.png	2017-03-08T07:18:28.119Z
Engine\Content\Slate\Common\Window\WindowButton_Maximize_Normal.png	2017-03-08T07:18:28.120Z
Engine\Content\Slate\Common\Window\WindowButton_Maximize_Pressed.png	2017-03-08T07:18:28.123Z
Engine\Content\Slate\Common\Window\WindowButton_Minimize_Disabled.png	2017-03-08T07:18:28.125Z
Engine\Content\Slate\Common\Window\WindowButton_Minimize_Hovered.png	2017-03-08T07:18:28.126Z
Engine\Content\Slate\Common\Window\WindowButton_Minimize_Normal.png	2017-03-08T07:18:28.128Z
Engine\Content\Slate\Common\Window\WindowButton_Minimize_Pressed.png	2017-03-08T07:18:28.131Z
Engine\Content\Slate\Common\Window\WindowButton_Restore_Hovered.png	2017-03-08T07:18:28.133Z
Engine\Content\Slate\Common\Window\WindowButton_Restore_Normal.png	2017-03-08T07:18:28.135Z
Engine\Content\Slate\Common\Window\WindowButton_Restore_Pressed.png	2017-03-08T07:18:28.137Z
Engine\Content\Slate\Common\Window\WindowOutline.png	2017-03-08T07:18:28.139Z
Engine\Content\Slate\Common\Window\WindowTitle.png	2017-03-08T07:18:28.142Z
Engine\Content\Slate\Common\Window\WindowTitle_Flashing.png	2017-03-08T07:18:28.143Z
Engine\Content\Slate\Common\Window\WindowTitle_Inactive.png	2017-03-08T07:18:28.145Z
Engine\Content\Slate\CrashTracker\MouseCursor.png	2017-03-08T07:18:28.150Z
Engine\Content\Slate\CrashTracker\Record.png	2017-03-08T07:18:28.152Z
Engine\Content\Slate\Docking\AppTabContentArea.png	2017-03-08T07:18:28.164Z
Engine\Content\Slate\Docking\AppTabWellSeparator.png	2017-03-08T07:18:28.166Z
Engine\Content\Slate\Docking\AppTab_Active.png	2017-03-08T07:18:28.153Z
Engine\Content\Slate\Docking\AppTab_ColorOverlay.png	2017-03-08T07:18:28.156Z
Engine\Content\Slate\Docking\AppTab_Foreground.png	2017-03-08T07:18:28.158Z
Engine\Content\Slate\Docking\AppTab_Hovered.png	2017-03-08T07:18:28.160Z
Engine\Content\Slate\Docking\AppTab_Inactive.png	2017-03-08T07:18:28.161Z
Engine\Content\Slate\Docking\CloseApp_Hovered.png	2017-03-08T07:18:28.168Z
Engine\Content\Slate\Docking\CloseApp_Normal.png	2017-03-08T07:18:28.170Z
Engine\Content\Slate\Docking\CloseApp_Pressed.png	2017-03-08T07:18:28.172Z
Engine\Content\Slate\Docking\DockingIndicator_Center.png	2017-03-08T07:18:28.173Z
Engine\Content\Slate\Docking\OuterDockingIndicator.png	2017-03-08T07:18:28.175Z
Engine\Content\Slate\Docking\ShowTabwellButton_Hovered.png	2017-03-08T07:18:28.176Z
Engine\Content\Slate\Docking\ShowTabwellButton_Normal.png	2017-03-08T07:18:28.178Z
Engine\Content\Slate\Docking\ShowTabwellButton_Pressed.png	2017-03-08T07:18:28.181Z
Engine\Content\Slate\Docking\TabContentArea.png	2017-03-08T07:18:28.192Z
Engine\Content\Slate\Docking\TabWellSeparator.png	2017-03-08T07:18:28.195Z
Engine\Content\Slate\Docking\Tab_Active.png	2017-03-08T07:18:28.183Z
Engine\Content\Slate\Docking\Tab_ColorOverlay.png	2017-03-08T07:18:28.185Z
Engine\Content\Slate\Docking\Tab_Foreground.png	2017-03-08T07:18:28.187Z
Engine\Content\Slate\Docking\Tab_Hovered.png	2017-03-08T07:18:28.189Z
Engine\Content\Slate\Docking\Tab_Inactive.png	2017-03-08T07:18:28.191Z
Engine\Content\Slate\Fonts\DroidSans.tps	2017-03-08T07:18:28.202Z
Engine\Content\Slate\Fonts\DroidSansFallback.ttf	2017-03-08T07:18:28.218Z
Engine\Content\Slate\Fonts\DroidSansMono.ttf	2017-03-08T07:18:28.223Z
Engine\Content\Slate\Fonts\NanumGothic.tps	2017-03-08T07:18:28.231Z
Engine\Content\Slate\Fonts\NanumGothic.ttf	2017-03-08T07:18:28.249Z
Engine\Content\Slate\Fonts\Noto.tps	2017-03-08T07:18:28.251Z
Engine\Content\Slate\Fonts\NotoNaskhArabicUI-Regular.ttf	2017-03-08T07:18:28.257Z
Engine\Content\Slate\Fonts\Roboto-Bold.ttf	2017-03-08T07:18:28.262Z
Engine\Content\Slate\Fonts\Roboto-Light.ttf	2017-03-08T07:18:28.267Z
Engine\Content\Slate\Fonts\Roboto-Regular.ttf	2017-03-08T07:18:28.273Z
Engine\Content\Slate\Fonts\Roboto.tps	2017-03-08T07:18:28.274Z
Engine\Content\Slate\Icons\BackIcon.png	2017-03-08T07:18:28.276Z
Engine\Content\Slate\Icons\Cross_12x.png	2017-03-08T07:18:28.278Z
Engine\Content\Slate\Icons\cursor_cardinal_cross.png	2017-03-08T07:18:28.282Z
Engine\Content\Slate\Icons\cursor_grab.png	2017-03-08T07:18:28.284Z
Engine\Content\Slate\Icons\DefaultAppIcon.png	2017-03-08T07:18:28.287Z
Engine\Content\Slate\Icons\denied_16x.png	2017-03-08T07:18:28.289Z
Engine\Content\Slate\Icons\ellipsis_12x.png	2017-03-08T07:18:28.304Z
Engine\Content\Slate\Icons\Empty_14x.png	2017-03-08T07:18:28.306Z
Engine\Content\Slate\Icons\eyedropper_16px.png	2017-03-08T07:18:28.308Z
Engine\Content\Slate\Icons\icon_Downloads_16x.png	2017-03-08T07:18:28.310Z
Engine\Content\Slate\Icons\icon_error_16x.png	2017-03-08T07:18:28.312Z
Engine\Content\Slate\Icons\icon_generic_toolbar.png	2017-03-08T07:18:28.315Z
Engine\Content\Slate\Icons\icon_help_16x.png	2017-03-08T07:18:28.317Z
Engine\Content\Slate\Icons\icon_info_16x.png	2017-03-08T07:18:28.319Z
Engine\Content\Slate\Icons\icon_redo_16px.png	2017-03-08T07:18:28.321Z
Engine\Content\Slate\Icons\icon_tab_toolbar_16px.png	2017-03-08T07:18:28.323Z
Engine\Content\Slate\Icons\icon_tab_WidgetReflector_16x.png	2017-03-08T07:18:28.325Z
Engine\Content\Slate\Icons\icon_tab_WidgetReflector_40x.png	2017-03-08T07:18:28.328Z
Engine\Content\Slate\Icons\icon_undo_16px.png	2017-03-08T07:18:28.330Z
Engine\Content\Slate\Icons\icon_warning_16x.png	2017-03-08T07:18:28.333Z
Engine\Content\Slate\Icons\NextIcon.png	2017-03-08T07:18:28.335Z
Engine\Content\Slate\Icons\notificationlist_fail.png	2017-03-08T07:18:28.337Z
Engine\Content\Slate\Icons\notificationlist_success.png	2017-03-08T07:18:28.339Z
Engine\Content\Slate\Icons\PlusSymbol_12x.png	2017-03-08T07:18:28.341Z
Engine\Content\Slate\Icons\toolbar_expand_16x.png	2017-03-08T07:18:28.343Z
Engine\Content\Slate\Icons\TrashCan.png	2017-03-08T07:18:28.346Z
Engine\Content\Slate\Icons\TrashCan_Small.png	2017-03-08T07:18:28.349Z
Engine\Content\Slate\Icons\Edit\icon_Edit_Copy_16x.png	2017-03-08T07:18:28.292Z
Engine\Content\Slate\Icons\Edit\icon_Edit_Cut_16x.png	2017-03-08T07:18:28.294Z
Engine\Content\Slate\Icons\Edit\icon_Edit_Delete_16x.png	2017-03-08T07:18:28.297Z
Engine\Content\Slate\Icons\Edit\icon_Edit_Duplicate_16x.png	2017-03-08T07:18:28.300Z
Engine\Content\Slate\Icons\Edit\icon_Edit_Paste_16x.png	2017-03-08T07:18:28.302Z
Engine\Content\Slate\MessageLog\Log_Error.png	2017-03-08T07:18:28.351Z
Engine\Content\Slate\MessageLog\Log_Note.png	2017-03-08T07:18:28.352Z
Engine\Content\Slate\MessageLog\Log_Warning.png	2017-03-08T07:18:28.354Z
Engine\Content\Slate\Old\Border.PNG	2017-03-08T07:18:28.356Z
Engine\Content\Slate\Old\Button.png	2017-03-08T07:18:28.359Z
Engine\Content\Slate\Old\DashedBorder.png	2017-03-08T07:18:28.360Z
Engine\Content\Slate\Old\HyperlinkDotted.png	2017-03-08T07:18:28.363Z
Engine\Content\Slate\Old\HyperlinkUnderline.png	2017-03-08T07:18:28.366Z
Engine\Content\Slate\Old\Menu_Background.png	2017-03-08T07:18:28.368Z
Engine\Content\Slate\Old\Menu_Background_Inverted_Border_Bold.png	2017-03-08T07:18:28.369Z
Engine\Content\Slate\Old\Notification_Border_Flash.png	2017-03-08T07:18:28.371Z
Engine\Content\Slate\Old\ToolBar_Background.png	2017-03-08T07:18:28.374Z
Engine\Content\Slate\Old\ToolTip_Background.png	2017-03-08T07:18:28.375Z
Engine\Content\Slate\Old\ToolTip_BrightBackground.png	2017-03-08T07:18:28.377Z
Engine\Content\Slate\Old\White.png	2017-03-08T07:18:28.380Z
Engine\Content\Slate\Testing\BrushWireframe.png	2017-03-08T07:18:28.383Z
Engine\Content\Slate\Testing\DefaultPawn_16px.png	2017-03-08T07:18:28.384Z
Engine\Content\Slate\Testing\FlatColorSquare.png	2017-03-08T07:18:28.386Z
Engine\Content\Slate\Testing\GammaReference.png	2017-03-08T07:18:28.423Z
Engine\Content\Slate\Testing\Hyperlink.png	2017-03-08T07:18:28.424Z
Engine\Content\Slate\Testing\Lit.png	2017-03-08T07:18:28.426Z
Engine\Content\Slate\Testing\NewLevelBlank.png	2017-03-08T07:18:28.429Z
Engine\Content\Slate\Testing\TestRotation.png	2017-03-08T07:18:28.431Z
Engine\Content\Slate\Testing\UE4Icon.png	2017-03-08T07:18:28.433Z
Engine\Content\Slate\Testing\Unlit.png	2017-03-08T07:18:28.435Z
Engine\Content\Slate\Testing\Wireframe.png	2017-03-08T07:18:28.437Z
Engine\Content\Slate\Testing\Fonts\Roboto-BlackItalic.ttf	2017-03-08T07:18:28.396Z
Engine\Content\Slate\Testing\Fonts\Roboto-BoldItalic.ttf	2017-03-08T07:18:28.406Z
Engine\Content\Slate\Testing\Fonts\Roboto-Italic.ttf	2017-03-08T07:18:28.415Z
Engine\Content\Slate\Testing\Fonts\Roboto.tps	2017-03-08T07:18:28.421Z
Engine\Content\Slate\Tutorials\TutorialBorder.png	2017-03-08T07:18:28.439Z
Engine\Content\Slate\Tutorials\TutorialShadow.png	2017-03-08T07:18:28.440Z
Engine\Shaders\StandaloneRenderer\D3D\GammaCorrectionCommon.hlsl	2017-03-08T07:51:36.402Z
Engine\Shaders\StandaloneRenderer\D3D\SlateDefaultVertexShader.hlsl	2017-03-08T07:51:36.406Z
Engine\Shaders\StandaloneRenderer\D3D\SlateElementPixelShader.hlsl	2017-03-08T07:51:36.411Z
Engine\Shaders\StandaloneRenderer\OpenGL\SlateElementPixelShader.glsl	2017-03-08T07:51:36.415Z
Engine\Shaders\StandaloneRenderer\OpenGL\SlateVertexShader.glsl	2017-03-08T07:51:36.420Z
Engine\Shaders\StandaloneRenderer\OpenGL\SplashFragmentShader.glsl	2017-03-08T07:51:36.425Z
Engine\Shaders\StandaloneRenderer\OpenGL\SplashVertexShader.glsl	2017-03-08T07:51:36.428Z
Engine\Content\Internationalization\icudt53l\cnvalias.icu	2017-03-08T07:17:57.015Z
Engine\Content\Internationalization\icudt53l\confusables.cfu	2017-03-08T07:17:57.049Z
Engine\Content\Internationalization\icudt53l\en.res	2017-03-08T07:17:57.320Z
Engine\Content\Internationalization\icudt53l\en_001.res	2017-03-08T07:17:57.324Z
Engine\Content\Internationalization\icudt53l\en_150.res	2017-03-08T07:17:57.326Z
Engine\Content\Internationalization\icudt53l\en_AG.res	2017-03-08T07:17:57.328Z
Engine\Content\Internationalization\icudt53l\en_AI.res	2017-03-08T07:17:57.331Z
Engine\Content\Internationalization\icudt53l\en_AS.res	2017-03-08T07:17:57.333Z
Engine\Content\Internationalization\icudt53l\en_AU.res	2017-03-08T07:17:57.339Z
Engine\Content\Internationalization\icudt53l\en_BB.res	2017-03-08T07:17:57.341Z
Engine\Content\Internationalization\icudt53l\en_BE.res	2017-03-08T07:17:57.343Z
Engine\Content\Internationalization\icudt53l\en_BM.res	2017-03-08T07:17:57.346Z
Engine\Content\Internationalization\icudt53l\en_BS.res	2017-03-08T07:17:57.348Z
Engine\Content\Internationalization\icudt53l\en_BW.res	2017-03-08T07:17:57.350Z
Engine\Content\Internationalization\icudt53l\en_BZ.res	2017-03-08T07:17:57.352Z
Engine\Content\Internationalization\icudt53l\en_CA.res	2017-03-08T07:17:57.357Z
Engine\Content\Internationalization\icudt53l\en_CC.res	2017-03-08T07:17:57.359Z
Engine\Content\Internationalization\icudt53l\en_CK.res	2017-03-08T07:17:57.361Z
Engine\Content\Internationalization\icudt53l\en_CM.res	2017-03-08T07:17:57.364Z
Engine\Content\Internationalization\icudt53l\en_CX.res	2017-03-08T07:17:57.365Z
Engine\Content\Internationalization\icudt53l\en_DG.res	2017-03-08T07:17:57.367Z
Engine\Content\Internationalization\icudt53l\en_DM.res	2017-03-08T07:17:57.370Z
Engine\Content\Internationalization\icudt53l\en_ER.res	2017-03-08T07:17:57.372Z
Engine\Content\Internationalization\icudt53l\en_FJ.res	2017-03-08T07:17:57.374Z
Engine\Content\Internationalization\icudt53l\en_FK.res	2017-03-08T07:17:57.376Z
Engine\Content\Internationalization\icudt53l\en_FM.res	2017-03-08T07:17:57.379Z
Engine\Content\Internationalization\icudt53l\en_GB.res	2017-03-08T07:17:57.383Z
Engine\Content\Internationalization\icudt53l\en_GD.res	2017-03-08T07:17:57.385Z
Engine\Content\Internationalization\icudt53l\en_GG.res	2017-03-08T07:17:57.389Z
Engine\Content\Internationalization\icudt53l\en_GH.res	2017-03-08T07:17:57.392Z
Engine\Content\Internationalization\icudt53l\en_GI.res	2017-03-08T07:17:57.394Z
Engine\Content\Internationalization\icudt53l\en_GM.res	2017-03-08T07:17:57.396Z
Engine\Content\Internationalization\icudt53l\en_GU.res	2017-03-08T07:17:57.398Z
Engine\Content\Internationalization\icudt53l\en_GY.res	2017-03-08T07:17:57.400Z
Engine\Content\Internationalization\icudt53l\en_HK.res	2017-03-08T07:17:57.406Z
Engine\Content\Internationalization\icudt53l\en_IE.res	2017-03-08T07:17:57.408Z
Engine\Content\Internationalization\icudt53l\en_IM.res	2017-03-08T07:17:57.409Z
Engine\Content\Internationalization\icudt53l\en_IN.res	2017-03-08T07:17:57.411Z
Engine\Content\Internationalization\icudt53l\en_IO.res	2017-03-08T07:17:57.414Z
Engine\Content\Internationalization\icudt53l\en_JE.res	2017-03-08T07:17:57.416Z
Engine\Content\Internationalization\icudt53l\en_JM.res	2017-03-08T07:17:57.418Z
Engine\Content\Internationalization\icudt53l\en_KE.res	2017-03-08T07:17:57.421Z
Engine\Content\Internationalization\icudt53l\en_KI.res	2017-03-08T07:17:57.423Z
Engine\Content\Internationalization\icudt53l\en_KN.res	2017-03-08T07:17:57.424Z
Engine\Content\Internationalization\icudt53l\en_KY.res	2017-03-08T07:17:57.426Z
Engine\Content\Internationalization\icudt53l\en_LC.res	2017-03-08T07:17:57.429Z
Engine\Content\Internationalization\icudt53l\en_LR.res	2017-03-08T07:17:57.431Z
Engine\Content\Internationalization\icudt53l\en_LS.res	2017-03-08T07:17:57.433Z
Engine\Content\Internationalization\icudt53l\en_MG.res	2017-03-08T07:17:57.435Z
Engine\Content\Internationalization\icudt53l\en_MH.res	2017-03-08T07:17:57.437Z
Engine\Content\Internationalization\icudt53l\en_MO.res	2017-03-08T07:17:57.441Z
Engine\Content\Internationalization\icudt53l\en_MP.res	2017-03-08T07:17:57.443Z
Engine\Content\Internationalization\icudt53l\en_MS.res	2017-03-08T07:17:57.446Z
Engine\Content\Internationalization\icudt53l\en_MT.res	2017-03-08T07:17:57.448Z
Engine\Content\Internationalization\icudt53l\en_MU.res	2017-03-08T07:17:57.450Z
Engine\Content\Internationalization\icudt53l\en_MW.res	2017-03-08T07:17:57.452Z
Engine\Content\Internationalization\icudt53l\en_NA.res	2017-03-08T07:17:57.454Z
Engine\Content\Internationalization\icudt53l\en_NF.res	2017-03-08T07:17:57.457Z
Engine\Content\Internationalization\icudt53l\en_NG.res	2017-03-08T07:17:57.459Z
Engine\Content\Internationalization\icudt53l\en_NH.res	2017-03-08T07:17:57.463Z
Engine\Content\Internationalization\icudt53l\en_NR.res	2017-03-08T07:17:57.465Z
Engine\Content\Internationalization\icudt53l\en_NU.res	2017-03-08T07:17:57.467Z
Engine\Content\Internationalization\icudt53l\en_NZ.res	2017-03-08T07:17:57.469Z
Engine\Content\Internationalization\icudt53l\en_PG.res	2017-03-08T07:17:57.472Z
Engine\Content\Internationalization\icudt53l\en_PH.res	2017-03-08T07:17:57.474Z
Engine\Content\Internationalization\icudt53l\en_PK.res	2017-03-08T07:17:57.476Z
Engine\Content\Internationalization\icudt53l\en_PN.res	2017-03-08T07:17:57.479Z
Engine\Content\Internationalization\icudt53l\en_PR.res	2017-03-08T07:17:57.482Z
Engine\Content\Internationalization\icudt53l\en_PW.res	2017-03-08T07:17:57.484Z
Engine\Content\Internationalization\icudt53l\en_RH.res	2017-03-08T07:17:57.491Z
Engine\Content\Internationalization\icudt53l\en_RW.res	2017-03-08T07:17:57.492Z
Engine\Content\Internationalization\icudt53l\en_SB.res	2017-03-08T07:17:57.494Z
Engine\Content\Internationalization\icudt53l\en_SC.res	2017-03-08T07:17:57.497Z
Engine\Content\Internationalization\icudt53l\en_SD.res	2017-03-08T07:17:57.499Z
Engine\Content\Internationalization\icudt53l\en_SG.res	2017-03-08T07:17:57.504Z
Engine\Content\Internationalization\icudt53l\en_SH.res	2017-03-08T07:17:57.506Z
Engine\Content\Internationalization\icudt53l\en_SL.res	2017-03-08T07:17:57.508Z
Engine\Content\Internationalization\icudt53l\en_SS.res	2017-03-08T07:17:57.510Z
Engine\Content\Internationalization\icudt53l\en_SX.res	2017-03-08T07:17:57.513Z
Engine\Content\Internationalization\icudt53l\en_SZ.res	2017-03-08T07:17:57.515Z
Engine\Content\Internationalization\icudt53l\en_TC.res	2017-03-08T07:17:57.516Z
Engine\Content\Internationalization\icudt53l\en_TK.res	2017-03-08T07:17:57.518Z
Engine\Content\Internationalization\icudt53l\en_TO.res	2017-03-08T07:17:57.521Z
Engine\Content\Internationalization\icudt53l\en_TT.res	2017-03-08T07:17:57.523Z
Engine\Content\Internationalization\icudt53l\en_TV.res	2017-03-08T07:17:57.525Z
Engine\Content\Internationalization\icudt53l\en_TZ.res	2017-03-08T07:17:57.526Z
Engine\Content\Internationalization\icudt53l\en_UG.res	2017-03-08T07:17:57.529Z
Engine\Content\Internationalization\icudt53l\en_UM.res	2017-03-08T07:17:57.532Z
Engine\Content\Internationalization\icudt53l\en_US.res	2017-03-08T07:17:57.533Z
Engine\Content\Internationalization\icudt53l\en_US_POSIX.res	2017-03-08T07:17:57.536Z
Engine\Content\Internationalization\icudt53l\en_VC.res	2017-03-08T07:17:57.538Z
Engine\Content\Internationalization\icudt53l\en_VG.res	2017-03-08T07:17:57.541Z
Engine\Content\Internationalization\icudt53l\en_VI.res	2017-03-08T07:17:57.543Z
Engine\Content\Internationalization\icudt53l\en_VU.res	2017-03-08T07:17:57.546Z
Engine\Content\Internationalization\icudt53l\en_WS.res	2017-03-08T07:17:57.548Z
Engine\Content\Internationalization\icudt53l\en_ZA.res	2017-03-08T07:17:57.550Z
Engine\Content\Internationalization\icudt53l\en_ZM.res	2017-03-08T07:17:57.552Z
Engine\Content\Internationalization\icudt53l\en_ZW.res	2017-03-08T07:17:57.555Z
Engine\Content\Internationalization\icudt53l\ibm-1047_P100-1995.cnv	2017-03-08T07:17:57.557Z
Engine\Content\Internationalization\icudt53l\ibm-37_P100-1995.cnv	2017-03-08T07:17:57.558Z
Engine\Content\Internationalization\icudt53l\keyTypeData.res	2017-03-08T07:17:57.561Z
Engine\Content\Internationalization\icudt53l\leet.res	2017-03-08T07:17:57.779Z
Engine\Content\Internationalization\icudt53l\metaZones.res	2017-03-08T07:17:57.784Z
Engine\Content\Internationalization\icudt53l\nfc.nrm	2017-03-08T07:17:57.790Z
Engine\Content\Internationalization\icudt53l\nfkc.nrm	2017-03-08T07:17:57.796Z
Engine\Content\Internationalization\icudt53l\nfkc_cf.nrm	2017-03-08T07:17:57.801Z
Engine\Content\Internationalization\icudt53l\numberingSystems.res	2017-03-08T07:17:57.803Z
Engine\Content\Internationalization\icudt53l\plurals.res	2017-03-08T07:17:57.809Z
Engine\Content\Internationalization\icudt53l\pool.res	2017-03-08T07:17:57.814Z
Engine\Content\Internationalization\icudt53l\res_index.res	2017-03-08T07:17:58.075Z
Engine\Content\Internationalization\icudt53l\root.res	2017-03-08T07:17:58.082Z
Engine\Content\Internationalization\icudt53l\timezoneTypes.res	2017-03-08T07:17:58.088Z
Engine\Content\Internationalization\icudt53l\unames.icu	2017-03-08T07:17:58.093Z
Engine\Content\Internationalization\icudt53l\uts46.nrm	2017-03-08T07:17:58.098Z
Engine\Content\Internationalization\icudt53l\windowsZones.res	2017-03-08T07:17:58.103Z
Engine\Content\Internationalization\icudt53l\zoneinfo64.res	2017-03-08T07:17:58.302Z
Engine\Content\Internationalization\icudt53l\brkitr\char.brk	2017-03-08T07:17:56.964Z
Engine\Content\Internationalization\icudt53l\brkitr\en.res	2017-03-08T07:17:56.966Z
Engine\Content\Internationalization\icudt53l\brkitr\en_US.res	2017-03-08T07:17:56.969Z
Engine\Content\Internationalization\icudt53l\brkitr\en_US_POSIX.res	2017-03-08T07:17:56.971Z
Engine\Content\Internationalization\icudt53l\brkitr\leet.res	2017-03-08T07:17:56.973Z
Engine\Content\Internationalization\icudt53l\brkitr\line.brk	2017-03-08T07:17:56.982Z
Engine\Content\Internationalization\icudt53l\brkitr\res_index.res	2017-03-08T07:17:56.984Z
Engine\Content\Internationalization\icudt53l\brkitr\root.res	2017-03-08T07:17:56.986Z
Engine\Content\Internationalization\icudt53l\brkitr\sent.brk	2017-03-08T07:17:56.991Z
Engine\Content\Internationalization\icudt53l\brkitr\title.brk	2017-03-08T07:17:56.997Z
Engine\Content\Internationalization\icudt53l\brkitr\word.brk	2017-03-08T07:17:57.003Z
Engine\Content\Internationalization\icudt53l\brkitr\word_POSIX.brk	2017-03-08T07:17:57.009Z
Engine\Content\Internationalization\icudt53l\coll\en.res	2017-03-08T07:17:57.017Z
Engine\Content\Internationalization\icudt53l\coll\en_US.res	2017-03-08T07:17:57.020Z
Engine\Content\Internationalization\icudt53l\coll\en_US_POSIX.res	2017-03-08T07:17:57.025Z
Engine\Content\Internationalization\icudt53l\coll\leet.res	2017-03-08T07:17:57.030Z
Engine\Content\Internationalization\icudt53l\coll\res_index.res	2017-03-08T07:17:57.032Z
Engine\Content\Internationalization\icudt53l\coll\root.res	2017-03-08T07:17:57.038Z
Engine\Content\Internationalization\icudt53l\coll\ucadata.icu	2017-03-08T07:17:57.043Z
Engine\Content\Internationalization\icudt53l\curr\en.res	2017-03-08T07:17:57.055Z
Engine\Content\Internationalization\icudt53l\curr\en_001.res	2017-03-08T07:17:57.057Z
Engine\Content\Internationalization\icudt53l\curr\en_150.res	2017-03-08T07:17:57.059Z
Engine\Content\Internationalization\icudt53l\curr\en_AG.res	2017-03-08T07:17:57.064Z
Engine\Content\Internationalization\icudt53l\curr\en_AI.res	2017-03-08T07:17:57.069Z
Engine\Content\Internationalization\icudt53l\curr\en_AU.res	2017-03-08T07:17:57.073Z
Engine\Content\Internationalization\icudt53l\curr\en_BB.res	2017-03-08T07:17:57.075Z
Engine\Content\Internationalization\icudt53l\curr\en_BE.res	2017-03-08T07:17:57.080Z
Engine\Content\Internationalization\icudt53l\curr\en_BM.res	2017-03-08T07:17:57.082Z
Engine\Content\Internationalization\icudt53l\curr\en_BS.res	2017-03-08T07:17:57.084Z
Engine\Content\Internationalization\icudt53l\curr\en_BW.res	2017-03-08T07:17:57.087Z
Engine\Content\Internationalization\icudt53l\curr\en_BZ.res	2017-03-08T07:17:57.090Z
Engine\Content\Internationalization\icudt53l\curr\en_CA.res	2017-03-08T07:17:57.092Z
Engine\Content\Internationalization\icudt53l\curr\en_CC.res	2017-03-08T07:17:57.096Z
Engine\Content\Internationalization\icudt53l\curr\en_CK.res	2017-03-08T07:17:57.098Z
Engine\Content\Internationalization\icudt53l\curr\en_CM.res	2017-03-08T07:17:57.101Z
Engine\Content\Internationalization\icudt53l\curr\en_CX.res	2017-03-08T07:17:57.103Z
Engine\Content\Internationalization\icudt53l\curr\en_DG.res	2017-03-08T07:17:57.108Z
Engine\Content\Internationalization\icudt53l\curr\en_DM.res	2017-03-08T07:17:57.110Z
Engine\Content\Internationalization\icudt53l\curr\en_ER.res	2017-03-08T07:17:57.114Z
Engine\Content\Internationalization\icudt53l\curr\en_FJ.res	2017-03-08T07:17:57.116Z
Engine\Content\Internationalization\icudt53l\curr\en_FK.res	2017-03-08T07:17:57.121Z
Engine\Content\Internationalization\icudt53l\curr\en_FM.res	2017-03-08T07:17:57.123Z
Engine\Content\Internationalization\icudt53l\curr\en_GB.res	2017-03-08T07:17:57.125Z
Engine\Content\Internationalization\icudt53l\curr\en_GD.res	2017-03-08T07:17:57.126Z
Engine\Content\Internationalization\icudt53l\curr\en_GG.res	2017-03-08T07:17:57.132Z
Engine\Content\Internationalization\icudt53l\curr\en_GH.res	2017-03-08T07:17:57.134Z
Engine\Content\Internationalization\icudt53l\curr\en_GI.res	2017-03-08T07:17:57.138Z
Engine\Content\Internationalization\icudt53l\curr\en_GM.res	2017-03-08T07:17:57.143Z
Engine\Content\Internationalization\icudt53l\curr\en_GY.res	2017-03-08T07:17:57.145Z
Engine\Content\Internationalization\icudt53l\curr\en_HK.res	2017-03-08T07:17:57.148Z
Engine\Content\Internationalization\icudt53l\curr\en_IE.res	2017-03-08T07:17:57.150Z
Engine\Content\Internationalization\icudt53l\curr\en_IM.res	2017-03-08T07:17:57.153Z
Engine\Content\Internationalization\icudt53l\curr\en_IN.res	2017-03-08T07:17:57.155Z
Engine\Content\Internationalization\icudt53l\curr\en_IO.res	2017-03-08T07:17:57.157Z
Engine\Content\Internationalization\icudt53l\curr\en_JE.res	2017-03-08T07:17:57.159Z
Engine\Content\Internationalization\icudt53l\curr\en_JM.res	2017-03-08T07:17:57.161Z
Engine\Content\Internationalization\icudt53l\curr\en_KE.res	2017-03-08T07:17:57.164Z
Engine\Content\Internationalization\icudt53l\curr\en_KI.res	2017-03-08T07:17:57.166Z
Engine\Content\Internationalization\icudt53l\curr\en_KN.res	2017-03-08T07:17:57.169Z
Engine\Content\Internationalization\icudt53l\curr\en_KY.res	2017-03-08T07:17:57.171Z
Engine\Content\Internationalization\icudt53l\curr\en_LC.res	2017-03-08T07:17:57.173Z
Engine\Content\Internationalization\icudt53l\curr\en_LR.res	2017-03-08T07:17:57.178Z
Engine\Content\Internationalization\icudt53l\curr\en_LS.res	2017-03-08T07:17:57.181Z
Engine\Content\Internationalization\icudt53l\curr\en_MG.res	2017-03-08T07:17:57.183Z
Engine\Content\Internationalization\icudt53l\curr\en_MO.res	2017-03-08T07:17:57.185Z
Engine\Content\Internationalization\icudt53l\curr\en_MS.res	2017-03-08T07:17:57.187Z
Engine\Content\Internationalization\icudt53l\curr\en_MT.res	2017-03-08T07:17:57.192Z
Engine\Content\Internationalization\icudt53l\curr\en_MU.res	2017-03-08T07:17:57.194Z
Engine\Content\Internationalization\icudt53l\curr\en_MW.res	2017-03-08T07:17:57.197Z
Engine\Content\Internationalization\icudt53l\curr\en_NA.res	2017-03-08T07:17:57.198Z
Engine\Content\Internationalization\icudt53l\curr\en_NF.res	2017-03-08T07:17:57.201Z
Engine\Content\Internationalization\icudt53l\curr\en_NG.res	2017-03-08T07:17:57.202Z
Engine\Content\Internationalization\icudt53l\curr\en_NH.res	2017-03-08T07:17:57.204Z
Engine\Content\Internationalization\icudt53l\curr\en_NR.res	2017-03-08T07:17:57.206Z
Engine\Content\Internationalization\icudt53l\curr\en_NU.res	2017-03-08T07:17:57.209Z
Engine\Content\Internationalization\icudt53l\curr\en_NZ.res	2017-03-08T07:17:57.211Z
Engine\Content\Internationalization\icudt53l\curr\en_PG.res	2017-03-08T07:17:57.213Z
Engine\Content\Internationalization\icudt53l\curr\en_PH.res	2017-03-08T07:17:57.218Z
Engine\Content\Internationalization\icudt53l\curr\en_PK.res	2017-03-08T07:17:57.222Z
Engine\Content\Internationalization\icudt53l\curr\en_PN.res	2017-03-08T07:17:57.223Z
Engine\Content\Internationalization\icudt53l\curr\en_PW.res	2017-03-08T07:17:57.229Z
Engine\Content\Internationalization\icudt53l\curr\en_RH.res	2017-03-08T07:17:57.231Z
Engine\Content\Internationalization\icudt53l\curr\en_RW.res	2017-03-08T07:17:57.233Z
Engine\Content\Internationalization\icudt53l\curr\en_SB.res	2017-03-08T07:17:57.235Z
Engine\Content\Internationalization\icudt53l\curr\en_SC.res	2017-03-08T07:17:57.237Z
Engine\Content\Internationalization\icudt53l\curr\en_SD.res	2017-03-08T07:17:57.239Z
Engine\Content\Internationalization\icudt53l\curr\en_SG.res	2017-03-08T07:17:57.241Z
Engine\Content\Internationalization\icudt53l\curr\en_SH.res	2017-03-08T07:17:57.242Z
Engine\Content\Internationalization\icudt53l\curr\en_SL.res	2017-03-08T07:17:57.247Z
Engine\Content\Internationalization\icudt53l\curr\en_SS.res	2017-03-08T07:17:57.249Z
Engine\Content\Internationalization\icudt53l\curr\en_SX.res	2017-03-08T07:17:57.252Z
Engine\Content\Internationalization\icudt53l\curr\en_SZ.res	2017-03-08T07:17:57.254Z
Engine\Content\Internationalization\icudt53l\curr\en_TC.res	2017-03-08T07:17:57.256Z
Engine\Content\Internationalization\icudt53l\curr\en_TK.res	2017-03-08T07:17:57.259Z
Engine\Content\Internationalization\icudt53l\curr\en_TO.res	2017-03-08T07:17:57.261Z
Engine\Content\Internationalization\icudt53l\curr\en_TT.res	2017-03-08T07:17:57.263Z
Engine\Content\Internationalization\icudt53l\curr\en_TV.res	2017-03-08T07:17:57.265Z
Engine\Content\Internationalization\icudt53l\curr\en_TZ.res	2017-03-08T07:17:57.268Z
Engine\Content\Internationalization\icudt53l\curr\en_UG.res	2017-03-08T07:17:57.271Z
Engine\Content\Internationalization\icudt53l\curr\en_VC.res	2017-03-08T07:17:57.273Z
Engine\Content\Internationalization\icudt53l\curr\en_VG.res	2017-03-08T07:17:57.277Z
Engine\Content\Internationalization\icudt53l\curr\en_VU.res	2017-03-08T07:17:57.282Z
Engine\Content\Internationalization\icudt53l\curr\en_WS.res	2017-03-08T07:17:57.287Z
Engine\Content\Internationalization\icudt53l\curr\en_ZA.res	2017-03-08T07:17:57.289Z
Engine\Content\Internationalization\icudt53l\curr\en_ZM.res	2017-03-08T07:17:57.291Z
Engine\Content\Internationalization\icudt53l\curr\en_ZW.res	2017-03-08T07:17:57.295Z
Engine\Content\Internationalization\icudt53l\curr\leet.res	2017-03-08T07:17:57.302Z
Engine\Content\Internationalization\icudt53l\curr\pool.res	2017-03-08T07:17:57.304Z
Engine\Content\Internationalization\icudt53l\curr\res_index.res	2017-03-08T07:17:57.306Z
Engine\Content\Internationalization\icudt53l\curr\root.res	2017-03-08T07:17:57.308Z
Engine\Content\Internationalization\icudt53l\curr\supplementalData.res	2017-03-08T07:17:57.314Z
Engine\Content\Internationalization\icudt53l\lang\en.res	2017-03-08T07:17:57.567Z
Engine\Content\Internationalization\icudt53l\lang\en_150.res	2017-03-08T07:17:57.569Z
Engine\Content\Internationalization\icudt53l\lang\en_AG.res	2017-03-08T07:17:57.571Z
Engine\Content\Internationalization\icudt53l\lang\en_AI.res	2017-03-08T07:17:57.572Z
Engine\Content\Internationalization\icudt53l\lang\en_AU.res	2017-03-08T07:17:57.574Z
Engine\Content\Internationalization\icudt53l\lang\en_BB.res	2017-03-08T07:17:57.577Z
Engine\Content\Internationalization\icudt53l\lang\en_BE.res	2017-03-08T07:17:57.579Z
Engine\Content\Internationalization\icudt53l\lang\en_BM.res	2017-03-08T07:17:57.581Z
Engine\Content\Internationalization\icudt53l\lang\en_BS.res	2017-03-08T07:17:57.583Z
Engine\Content\Internationalization\icudt53l\lang\en_BW.res	2017-03-08T07:17:57.585Z
Engine\Content\Internationalization\icudt53l\lang\en_BZ.res	2017-03-08T07:17:57.587Z
Engine\Content\Internationalization\icudt53l\lang\en_CC.res	2017-03-08T07:17:57.589Z
Engine\Content\Internationalization\icudt53l\lang\en_CK.res	2017-03-08T07:17:57.591Z
Engine\Content\Internationalization\icudt53l\lang\en_CM.res	2017-03-08T07:17:57.593Z
Engine\Content\Internationalization\icudt53l\lang\en_CX.res	2017-03-08T07:17:57.594Z
Engine\Content\Internationalization\icudt53l\lang\en_DG.res	2017-03-08T07:17:57.597Z
Engine\Content\Internationalization\icudt53l\lang\en_DM.res	2017-03-08T07:17:57.599Z
Engine\Content\Internationalization\icudt53l\lang\en_ER.res	2017-03-08T07:17:57.601Z
Engine\Content\Internationalization\icudt53l\lang\en_FJ.res	2017-03-08T07:17:57.603Z
Engine\Content\Internationalization\icudt53l\lang\en_FK.res	2017-03-08T07:17:57.605Z
Engine\Content\Internationalization\icudt53l\lang\en_FM.res	2017-03-08T07:17:57.607Z
Engine\Content\Internationalization\icudt53l\lang\en_GB.res	2017-03-08T07:17:57.609Z
Engine\Content\Internationalization\icudt53l\lang\en_GD.res	2017-03-08T07:17:57.610Z
Engine\Content\Internationalization\icudt53l\lang\en_GG.res	2017-03-08T07:17:57.613Z
Engine\Content\Internationalization\icudt53l\lang\en_GH.res	2017-03-08T07:17:57.615Z
Engine\Content\Internationalization\icudt53l\lang\en_GI.res	2017-03-08T07:17:57.617Z
Engine\Content\Internationalization\icudt53l\lang\en_GM.res	2017-03-08T07:17:57.619Z
Engine\Content\Internationalization\icudt53l\lang\en_GY.res	2017-03-08T07:17:57.621Z
Engine\Content\Internationalization\icudt53l\lang\en_HK.res	2017-03-08T07:17:57.623Z
Engine\Content\Internationalization\icudt53l\lang\en_IE.res	2017-03-08T07:17:57.626Z
Engine\Content\Internationalization\icudt53l\lang\en_IM.res	2017-03-08T07:17:57.628Z
Engine\Content\Internationalization\icudt53l\lang\en_IN.res	2017-03-08T07:17:57.631Z
Engine\Content\Internationalization\icudt53l\lang\en_IO.res	2017-03-08T07:17:57.632Z
Engine\Content\Internationalization\icudt53l\lang\en_JE.res	2017-03-08T07:17:57.635Z
Engine\Content\Internationalization\icudt53l\lang\en_JM.res	2017-03-08T07:17:57.638Z
Engine\Content\Internationalization\icudt53l\lang\en_KE.res	2017-03-08T07:17:57.640Z
Engine\Content\Internationalization\icudt53l\lang\en_KI.res	2017-03-08T07:17:57.642Z
Engine\Content\Internationalization\icudt53l\lang\en_KN.res	2017-03-08T07:17:57.645Z
Engine\Content\Internationalization\icudt53l\lang\en_KY.res	2017-03-08T07:17:57.647Z
Engine\Content\Internationalization\icudt53l\lang\en_LC.res	2017-03-08T07:17:57.650Z
Engine\Content\Internationalization\icudt53l\lang\en_LR.res	2017-03-08T07:17:57.653Z
Engine\Content\Internationalization\icudt53l\lang\en_LS.res	2017-03-08T07:17:57.654Z
Engine\Content\Internationalization\icudt53l\lang\en_MG.res	2017-03-08T07:17:57.656Z
Engine\Content\Internationalization\icudt53l\lang\en_MO.res	2017-03-08T07:17:57.659Z
Engine\Content\Internationalization\icudt53l\lang\en_MS.res	2017-03-08T07:17:57.661Z
Engine\Content\Internationalization\icudt53l\lang\en_MT.res	2017-03-08T07:17:57.663Z
Engine\Content\Internationalization\icudt53l\lang\en_MU.res	2017-03-08T07:17:57.665Z
Engine\Content\Internationalization\icudt53l\lang\en_MW.res	2017-03-08T07:17:57.668Z
Engine\Content\Internationalization\icudt53l\lang\en_NA.res	2017-03-08T07:17:57.670Z
Engine\Content\Internationalization\icudt53l\lang\en_NF.res	2017-03-08T07:17:57.673Z
Engine\Content\Internationalization\icudt53l\lang\en_NG.res	2017-03-08T07:17:57.675Z
Engine\Content\Internationalization\icudt53l\lang\en_NH.res	2017-03-08T07:17:57.681Z
Engine\Content\Internationalization\icudt53l\lang\en_NR.res	2017-03-08T07:17:57.683Z
Engine\Content\Internationalization\icudt53l\lang\en_NU.res	2017-03-08T07:17:57.686Z
Engine\Content\Internationalization\icudt53l\lang\en_NZ.res	2017-03-08T07:17:57.688Z
Engine\Content\Internationalization\icudt53l\lang\en_PG.res	2017-03-08T07:17:57.690Z
Engine\Content\Internationalization\icudt53l\lang\en_PH.res	2017-03-08T07:17:57.692Z
Engine\Content\Internationalization\icudt53l\lang\en_PK.res	2017-03-08T07:17:57.695Z
Engine\Content\Internationalization\icudt53l\lang\en_PN.res	2017-03-08T07:17:57.697Z
Engine\Content\Internationalization\icudt53l\lang\en_PW.res	2017-03-08T07:17:57.699Z
Engine\Content\Internationalization\icudt53l\lang\en_RH.res	2017-03-08T07:17:57.704Z
Engine\Content\Internationalization\icudt53l\lang\en_RW.res	2017-03-08T07:17:57.706Z
Engine\Content\Internationalization\icudt53l\lang\en_SB.res	2017-03-08T07:17:57.708Z
Engine\Content\Internationalization\icudt53l\lang\en_SC.res	2017-03-08T07:17:57.710Z
Engine\Content\Internationalization\icudt53l\lang\en_SD.res	2017-03-08T07:17:57.713Z
Engine\Content\Internationalization\icudt53l\lang\en_SG.res	2017-03-08T07:17:57.718Z
Engine\Content\Internationalization\icudt53l\lang\en_SH.res	2017-03-08T07:17:57.720Z
Engine\Content\Internationalization\icudt53l\lang\en_SL.res	2017-03-08T07:17:57.722Z
Engine\Content\Internationalization\icudt53l\lang\en_SS.res	2017-03-08T07:17:57.724Z
Engine\Content\Internationalization\icudt53l\lang\en_SX.res	2017-03-08T07:17:57.726Z
Engine\Content\Internationalization\icudt53l\lang\en_SZ.res	2017-03-08T07:17:57.729Z
Engine\Content\Internationalization\icudt53l\lang\en_TC.res	2017-03-08T07:17:57.731Z
Engine\Content\Internationalization\icudt53l\lang\en_TK.res	2017-03-08T07:17:57.733Z
Engine\Content\Internationalization\icudt53l\lang\en_TO.res	2017-03-08T07:17:57.736Z
Engine\Content\Internationalization\icudt53l\lang\en_TT.res	2017-03-08T07:17:57.738Z
Engine\Content\Internationalization\icudt53l\lang\en_TV.res	2017-03-08T07:17:57.740Z
Engine\Content\Internationalization\icudt53l\lang\en_TZ.res	2017-03-08T07:17:57.742Z
Engine\Content\Internationalization\icudt53l\lang\en_UG.res	2017-03-08T07:17:57.744Z
Engine\Content\Internationalization\icudt53l\lang\en_VC.res	2017-03-08T07:17:57.747Z
Engine\Content\Internationalization\icudt53l\lang\en_VG.res	2017-03-08T07:17:57.749Z
Engine\Content\Internationalization\icudt53l\lang\en_VU.res	2017-03-08T07:17:57.751Z
Engine\Content\Internationalization\icudt53l\lang\en_WS.res	2017-03-08T07:17:57.754Z
Engine\Content\Internationalization\icudt53l\lang\en_ZA.res	2017-03-08T07:17:57.756Z
Engine\Content\Internationalization\icudt53l\lang\en_ZM.res	2017-03-08T07:17:57.758Z
Engine\Content\Internationalization\icudt53l\lang\en_ZW.res	2017-03-08T07:17:57.760Z
Engine\Content\Internationalization\icudt53l\lang\leet.res	2017-03-08T07:17:57.765Z
Engine\Content\Internationalization\icudt53l\lang\pool.res	2017-03-08T07:17:57.770Z
Engine\Content\Internationalization\icudt53l\lang\res_index.res	2017-03-08T07:17:57.772Z
Engine\Content\Internationalization\icudt53l\lang\root.res	2017-03-08T07:17:57.774Z
Engine\Content\Internationalization\icudt53l\rbnf\en.res	2017-03-08T07:17:57.820Z
Engine\Content\Internationalization\icudt53l\rbnf\leet.res	2017-03-08T07:17:57.825Z
Engine\Content\Internationalization\icudt53l\rbnf\res_index.res	2017-03-08T07:17:57.828Z
Engine\Content\Internationalization\icudt53l\rbnf\root.res	2017-03-08T07:17:57.833Z
Engine\Content\Internationalization\icudt53l\region\en.res	2017-03-08T07:17:57.835Z
Engine\Content\Internationalization\icudt53l\region\en_150.res	2017-03-08T07:17:57.838Z
Engine\Content\Internationalization\icudt53l\region\en_AG.res	2017-03-08T07:17:57.842Z
Engine\Content\Internationalization\icudt53l\region\en_AI.res	2017-03-08T07:17:57.845Z
Engine\Content\Internationalization\icudt53l\region\en_AU.res	2017-03-08T07:17:57.848Z
Engine\Content\Internationalization\icudt53l\region\en_BB.res	2017-03-08T07:17:57.849Z
Engine\Content\Internationalization\icudt53l\region\en_BE.res	2017-03-08T07:17:57.852Z
Engine\Content\Internationalization\icudt53l\region\en_BM.res	2017-03-08T07:17:57.854Z
Engine\Content\Internationalization\icudt53l\region\en_BS.res	2017-03-08T07:17:57.859Z
Engine\Content\Internationalization\icudt53l\region\en_BW.res	2017-03-08T07:17:57.861Z
Engine\Content\Internationalization\icudt53l\region\en_BZ.res	2017-03-08T07:17:57.863Z
Engine\Content\Internationalization\icudt53l\region\en_CC.res	2017-03-08T07:17:57.865Z
Engine\Content\Internationalization\icudt53l\region\en_CK.res	2017-03-08T07:17:57.867Z
Engine\Content\Internationalization\icudt53l\region\en_CM.res	2017-03-08T07:17:57.870Z
Engine\Content\Internationalization\icudt53l\region\en_CX.res	2017-03-08T07:17:57.872Z
Engine\Content\Internationalization\icudt53l\region\en_DG.res	2017-03-08T07:17:57.874Z
Engine\Content\Internationalization\icudt53l\region\en_DM.res	2017-03-08T07:17:57.876Z
Engine\Content\Internationalization\icudt53l\region\en_ER.res	2017-03-08T07:17:57.879Z
Engine\Content\Internationalization\icudt53l\region\en_FJ.res	2017-03-08T07:17:57.881Z
Engine\Content\Internationalization\icudt53l\region\en_FK.res	2017-03-08T07:17:57.884Z
Engine\Content\Internationalization\icudt53l\region\en_FM.res	2017-03-08T07:17:57.886Z
Engine\Content\Internationalization\icudt53l\region\en_GB.res	2017-03-08T07:17:57.892Z
Engine\Content\Internationalization\icudt53l\region\en_GD.res	2017-03-08T07:17:57.895Z
Engine\Content\Internationalization\icudt53l\region\en_GG.res	2017-03-08T07:17:57.896Z
Engine\Content\Internationalization\icudt53l\region\en_GH.res	2017-03-08T07:17:57.898Z
Engine\Content\Internationalization\icudt53l\region\en_GI.res	2017-03-08T07:17:57.900Z
Engine\Content\Internationalization\icudt53l\region\en_GM.res	2017-03-08T07:17:57.902Z
Engine\Content\Internationalization\icudt53l\region\en_GY.res	2017-03-08T07:17:57.905Z
Engine\Content\Internationalization\icudt53l\region\en_HK.res	2017-03-08T07:17:57.907Z
Engine\Content\Internationalization\icudt53l\region\en_IE.res	2017-03-08T07:17:57.908Z
Engine\Content\Internationalization\icudt53l\region\en_IM.res	2017-03-08T07:17:57.910Z
Engine\Content\Internationalization\icudt53l\region\en_IN.res	2017-03-08T07:17:57.912Z
Engine\Content\Internationalization\icudt53l\region\en_IO.res	2017-03-08T07:17:57.915Z
Engine\Content\Internationalization\icudt53l\region\en_JE.res	2017-03-08T07:17:57.917Z
Engine\Content\Internationalization\icudt53l\region\en_JM.res	2017-03-08T07:17:57.919Z
Engine\Content\Internationalization\icudt53l\region\en_KE.res	2017-03-08T07:17:57.921Z
Engine\Content\Internationalization\icudt53l\region\en_KI.res	2017-03-08T07:17:57.924Z
Engine\Content\Internationalization\icudt53l\region\en_KN.res	2017-03-08T07:17:57.926Z
Engine\Content\Internationalization\icudt53l\region\en_KY.res	2017-03-08T07:17:57.930Z
Engine\Content\Internationalization\icudt53l\region\en_LC.res	2017-03-08T07:17:57.932Z
Engine\Content\Internationalization\icudt53l\region\en_LR.res	2017-03-08T07:17:57.934Z
Engine\Content\Internationalization\icudt53l\region\en_LS.res	2017-03-08T07:17:57.936Z
Engine\Content\Internationalization\icudt53l\region\en_MG.res	2017-03-08T07:17:57.938Z
Engine\Content\Internationalization\icudt53l\region\en_MO.res	2017-03-08T07:17:57.940Z
Engine\Content\Internationalization\icudt53l\region\en_MS.res	2017-03-08T07:17:57.942Z
Engine\Content\Internationalization\icudt53l\region\en_MT.res	2017-03-08T07:17:57.944Z
Engine\Content\Internationalization\icudt53l\region\en_MU.res	2017-03-08T07:17:57.947Z
Engine\Content\Internationalization\icudt53l\region\en_MW.res	2017-03-08T07:17:57.949Z
Engine\Content\Internationalization\icudt53l\region\en_NA.res	2017-03-08T07:17:57.951Z
Engine\Content\Internationalization\icudt53l\region\en_NF.res	2017-03-08T07:17:57.955Z
Engine\Content\Internationalization\icudt53l\region\en_NG.res	2017-03-08T07:17:57.957Z
Engine\Content\Internationalization\icudt53l\region\en_NH.res	2017-03-08T07:17:57.959Z
Engine\Content\Internationalization\icudt53l\region\en_NR.res	2017-03-08T07:17:57.969Z
Engine\Content\Internationalization\icudt53l\region\en_NU.res	2017-03-08T07:17:57.972Z
Engine\Content\Internationalization\icudt53l\region\en_NZ.res	2017-03-08T07:17:57.974Z
Engine\Content\Internationalization\icudt53l\region\en_PG.res	2017-03-08T07:17:57.975Z
Engine\Content\Internationalization\icudt53l\region\en_PH.res	2017-03-08T07:17:57.988Z
Engine\Content\Internationalization\icudt53l\region\en_PK.res	2017-03-08T07:17:57.990Z
Engine\Content\Internationalization\icudt53l\region\en_PN.res	2017-03-08T07:17:57.997Z
Engine\Content\Internationalization\icudt53l\region\en_PW.res	2017-03-08T07:17:57.999Z
Engine\Content\Internationalization\icudt53l\region\en_RH.res	2017-03-08T07:17:58.001Z
Engine\Content\Internationalization\icudt53l\region\en_RW.res	2017-03-08T07:17:58.004Z
Engine\Content\Internationalization\icudt53l\region\en_SB.res	2017-03-08T07:17:58.006Z
Engine\Content\Internationalization\icudt53l\region\en_SC.res	2017-03-08T07:17:58.008Z
Engine\Content\Internationalization\icudt53l\region\en_SD.res	2017-03-08T07:17:58.011Z
Engine\Content\Internationalization\icudt53l\region\en_SG.res	2017-03-08T07:17:58.014Z
Engine\Content\Internationalization\icudt53l\region\en_SH.res	2017-03-08T07:17:58.016Z
Engine\Content\Internationalization\icudt53l\region\en_SL.res	2017-03-08T07:17:58.018Z
Engine\Content\Internationalization\icudt53l\region\en_SS.res	2017-03-08T07:17:58.021Z
Engine\Content\Internationalization\icudt53l\region\en_SX.res	2017-03-08T07:17:58.023Z
Engine\Content\Internationalization\icudt53l\region\en_SZ.res	2017-03-08T07:17:58.025Z
Engine\Content\Internationalization\icudt53l\region\en_TC.res	2017-03-08T07:17:58.028Z
Engine\Content\Internationalization\icudt53l\region\en_TK.res	2017-03-08T07:17:58.030Z
Engine\Content\Internationalization\icudt53l\region\en_TO.res	2017-03-08T07:17:58.033Z
Engine\Content\Internationalization\icudt53l\region\en_TT.res	2017-03-08T07:17:58.034Z
Engine\Content\Internationalization\icudt53l\region\en_TV.res	2017-03-08T07:17:58.036Z
Engine\Content\Internationalization\icudt53l\region\en_TZ.res	2017-03-08T07:17:58.039Z
Engine\Content\Internationalization\icudt53l\region\en_UG.res	2017-03-08T07:17:58.041Z
Engine\Content\Internationalization\icudt53l\region\en_VC.res	2017-03-08T07:17:58.044Z
Engine\Content\Internationalization\icudt53l\region\en_VG.res	2017-03-08T07:17:58.046Z
Engine\Content\Internationalization\icudt53l\region\en_VU.res	2017-03-08T07:17:58.049Z
Engine\Content\Internationalization\icudt53l\region\en_WS.res	2017-03-08T07:17:58.051Z
Engine\Content\Internationalization\icudt53l\region\en_ZA.res	2017-03-08T07:17:58.053Z
Engine\Content\Internationalization\icudt53l\region\en_ZM.res	2017-03-08T07:17:58.056Z
Engine\Content\Internationalization\icudt53l\region\en_ZW.res	2017-03-08T07:17:58.058Z
Engine\Content\Internationalization\icudt53l\region\leet.res	2017-03-08T07:17:58.060Z
Engine\Content\Internationalization\icudt53l\region\pool.res	2017-03-08T07:17:58.066Z
Engine\Content\Internationalization\icudt53l\region\res_index.res	2017-03-08T07:17:58.067Z
Engine\Content\Internationalization\icudt53l\region\root.res	2017-03-08T07:17:58.073Z
Engine\Content\Internationalization\icudt53l\zone\en.res	2017-03-08T07:17:58.108Z
Engine\Content\Internationalization\icudt53l\zone\en_001.res	2017-03-08T07:17:58.110Z
Engine\Content\Internationalization\icudt53l\zone\en_150.res	2017-03-08T07:17:58.111Z
Engine\Content\Internationalization\icudt53l\zone\en_AG.res	2017-03-08T07:17:58.114Z
Engine\Content\Internationalization\icudt53l\zone\en_AI.res	2017-03-08T07:17:58.119Z
Engine\Content\Internationalization\icudt53l\zone\en_AU.res	2017-03-08T07:17:58.124Z
Engine\Content\Internationalization\icudt53l\zone\en_BB.res	2017-03-08T07:17:58.126Z
Engine\Content\Internationalization\icudt53l\zone\en_BE.res	2017-03-08T07:17:58.128Z
Engine\Content\Internationalization\icudt53l\zone\en_BM.res	2017-03-08T07:17:58.130Z
Engine\Content\Internationalization\icudt53l\zone\en_BS.res	2017-03-08T07:17:58.132Z
Engine\Content\Internationalization\icudt53l\zone\en_BW.res	2017-03-08T07:17:58.133Z
Engine\Content\Internationalization\icudt53l\zone\en_BZ.res	2017-03-08T07:17:58.135Z
Engine\Content\Internationalization\icudt53l\zone\en_CA.res	2017-03-08T07:17:58.137Z
Engine\Content\Internationalization\icudt53l\zone\en_CC.res	2017-03-08T07:17:58.139Z
Engine\Content\Internationalization\icudt53l\zone\en_CK.res	2017-03-08T07:17:58.140Z
Engine\Content\Internationalization\icudt53l\zone\en_CM.res	2017-03-08T07:17:58.141Z
Engine\Content\Internationalization\icudt53l\zone\en_CX.res	2017-03-08T07:17:58.143Z
Engine\Content\Internationalization\icudt53l\zone\en_DG.res	2017-03-08T07:17:58.145Z
Engine\Content\Internationalization\icudt53l\zone\en_DM.res	2017-03-08T07:17:58.146Z
Engine\Content\Internationalization\icudt53l\zone\en_ER.res	2017-03-08T07:17:58.150Z
Engine\Content\Internationalization\icudt53l\zone\en_FJ.res	2017-03-08T07:17:58.152Z
Engine\Content\Internationalization\icudt53l\zone\en_FK.res	2017-03-08T07:17:58.154Z
Engine\Content\Internationalization\icudt53l\zone\en_FM.res	2017-03-08T07:17:58.156Z
Engine\Content\Internationalization\icudt53l\zone\en_GB.res	2017-03-08T07:17:58.158Z
Engine\Content\Internationalization\icudt53l\zone\en_GD.res	2017-03-08T07:17:58.160Z
Engine\Content\Internationalization\icudt53l\zone\en_GG.res	2017-03-08T07:17:58.163Z
Engine\Content\Internationalization\icudt53l\zone\en_GH.res	2017-03-08T07:17:58.165Z
Engine\Content\Internationalization\icudt53l\zone\en_GI.res	2017-03-08T07:17:58.167Z
Engine\Content\Internationalization\icudt53l\zone\en_GM.res	2017-03-08T07:17:58.169Z
Engine\Content\Internationalization\icudt53l\zone\en_GU.res	2017-03-08T07:17:58.170Z
Engine\Content\Internationalization\icudt53l\zone\en_GY.res	2017-03-08T07:17:58.172Z
Engine\Content\Internationalization\icudt53l\zone\en_HK.res	2017-03-08T07:17:58.176Z
Engine\Content\Internationalization\icudt53l\zone\en_IE.res	2017-03-08T07:17:58.178Z
Engine\Content\Internationalization\icudt53l\zone\en_IM.res	2017-03-08T07:17:58.181Z
Engine\Content\Internationalization\icudt53l\zone\en_IN.res	2017-03-08T07:17:58.182Z
Engine\Content\Internationalization\icudt53l\zone\en_IO.res	2017-03-08T07:17:58.184Z
Engine\Content\Internationalization\icudt53l\zone\en_JE.res	2017-03-08T07:17:58.186Z
Engine\Content\Internationalization\icudt53l\zone\en_JM.res	2017-03-08T07:17:58.189Z
Engine\Content\Internationalization\icudt53l\zone\en_KE.res	2017-03-08T07:17:58.191Z
Engine\Content\Internationalization\icudt53l\zone\en_KI.res	2017-03-08T07:17:58.193Z
Engine\Content\Internationalization\icudt53l\zone\en_KN.res	2017-03-08T07:17:58.196Z
Engine\Content\Internationalization\icudt53l\zone\en_KY.res	2017-03-08T07:17:58.197Z
Engine\Content\Internationalization\icudt53l\zone\en_LC.res	2017-03-08T07:17:58.199Z
Engine\Content\Internationalization\icudt53l\zone\en_LR.res	2017-03-08T07:17:58.201Z
Engine\Content\Internationalization\icudt53l\zone\en_LS.res	2017-03-08T07:17:58.202Z
Engine\Content\Internationalization\icudt53l\zone\en_MG.res	2017-03-08T07:17:58.205Z
Engine\Content\Internationalization\icudt53l\zone\en_MH.res	2017-03-08T07:17:58.207Z
Engine\Content\Internationalization\icudt53l\zone\en_MO.res	2017-03-08T07:17:58.209Z
Engine\Content\Internationalization\icudt53l\zone\en_MP.res	2017-03-08T07:17:58.211Z
Engine\Content\Internationalization\icudt53l\zone\en_MS.res	2017-03-08T07:17:58.213Z
Engine\Content\Internationalization\icudt53l\zone\en_MT.res	2017-03-08T07:17:58.215Z
Engine\Content\Internationalization\icudt53l\zone\en_MU.res	2017-03-08T07:17:58.216Z
Engine\Content\Internationalization\icudt53l\zone\en_MW.res	2017-03-08T07:17:58.218Z
Engine\Content\Internationalization\icudt53l\zone\en_NA.res	2017-03-08T07:17:58.221Z
Engine\Content\Internationalization\icudt53l\zone\en_NF.res	2017-03-08T07:17:58.223Z
Engine\Content\Internationalization\icudt53l\zone\en_NG.res	2017-03-08T07:17:58.224Z
Engine\Content\Internationalization\icudt53l\zone\en_NH.res	2017-03-08T07:17:58.226Z
Engine\Content\Internationalization\icudt53l\zone\en_NR.res	2017-03-08T07:17:58.227Z
Engine\Content\Internationalization\icudt53l\zone\en_NU.res	2017-03-08T07:17:58.231Z
Engine\Content\Internationalization\icudt53l\zone\en_NZ.res	2017-03-08T07:17:58.235Z
Engine\Content\Internationalization\icudt53l\zone\en_PG.res	2017-03-08T07:17:58.237Z
Engine\Content\Internationalization\icudt53l\zone\en_PH.res	2017-03-08T07:17:58.239Z
Engine\Content\Internationalization\icudt53l\zone\en_PK.res	2017-03-08T07:17:58.241Z
Engine\Content\Internationalization\icudt53l\zone\en_PN.res	2017-03-08T07:17:58.242Z
Engine\Content\Internationalization\icudt53l\zone\en_PW.res	2017-03-08T07:17:58.244Z
Engine\Content\Internationalization\icudt53l\zone\en_RH.res	2017-03-08T07:17:58.246Z
Engine\Content\Internationalization\icudt53l\zone\en_RW.res	2017-03-08T07:17:58.248Z
Engine\Content\Internationalization\icudt53l\zone\en_SB.res	2017-03-08T07:17:58.249Z
Engine\Content\Internationalization\icudt53l\zone\en_SC.res	2017-03-08T07:17:58.251Z
Engine\Content\Internationalization\icudt53l\zone\en_SD.res	2017-03-08T07:17:58.253Z
Engine\Content\Internationalization\icudt53l\zone\en_SG.res	2017-03-08T07:17:58.255Z
Engine\Content\Internationalization\icudt53l\zone\en_SH.res	2017-03-08T07:17:58.256Z
Engine\Content\Internationalization\icudt53l\zone\en_SL.res	2017-03-08T07:17:58.258Z
Engine\Content\Internationalization\icudt53l\zone\en_SS.res	2017-03-08T07:17:58.260Z
Engine\Content\Internationalization\icudt53l\zone\en_SX.res	2017-03-08T07:17:58.262Z
Engine\Content\Internationalization\icudt53l\zone\en_SZ.res	2017-03-08T07:17:58.263Z
Engine\Content\Internationalization\icudt53l\zone\en_TC.res	2017-03-08T07:17:58.265Z
Engine\Content\Internationalization\icudt53l\zone\en_TK.res	2017-03-08T07:17:58.266Z
Engine\Content\Internationalization\icudt53l\zone\en_TO.res	2017-03-08T07:17:58.268Z
Engine\Content\Internationalization\icudt53l\zone\en_TT.res	2017-03-08T07:17:58.270Z
Engine\Content\Internationalization\icudt53l\zone\en_TV.res	2017-03-08T07:17:58.272Z
Engine\Content\Internationalization\icudt53l\zone\en_TZ.res	2017-03-08T07:17:58.273Z
Engine\Content\Internationalization\icudt53l\zone\en_UG.res	2017-03-08T07:17:58.275Z
Engine\Content\Internationalization\icudt53l\zone\en_VC.res	2017-03-08T07:17:58.276Z
Engine\Content\Internationalization\icudt53l\zone\en_VG.res	2017-03-08T07:17:58.278Z
Engine\Content\Internationalization\icudt53l\zone\en_VU.res	2017-03-08T07:17:58.280Z
Engine\Content\Internationalization\icudt53l\zone\en_WS.res	2017-03-08T07:17:58.282Z
Engine\Content\Internationalization\icudt53l\zone\en_ZA.res	2017-03-08T07:17:58.283Z
Engine\Content\Internationalization\icudt53l\zone\en_ZM.res	2017-03-08T07:17:58.285Z
Engine\Content\Internationalization\icudt53l\zone\en_ZW.res	2017-03-08T07:17:58.286Z
Engine\Content\Internationalization\icudt53l\zone\leet.res	2017-03-08T07:17:58.291Z
Engine\Content\Internationalization\icudt53l\zone\pool.res	2017-03-08T07:17:58.294Z
Engine\Content\Internationalization\icudt53l\zone\res_index.res	2017-03-08T07:17:58.296Z
Engine\Content\Internationalization\icudt53l\zone\root.res	2017-03-08T07:17:58.298Z
Engine\Programs\CrashReportClient\Config\DefaultEngine.ini	2017-03-08T07:51:35.180Z
